
100 envelopes = Custo 334,00 (120g)
200 cartões = Custo 43,00
100 pastas = Custo = 270,00


Cartão (200 Unidades)
Impressâo: Frente e Verso
Papel: Couché Brilho 300g (9cm x 4,8cm)
Refile
Valor: R$ 120,00


Envelope (100 Unidades) 
Impressão: Frente
Papel: Offset 120g (22,5cm x 31cm)
Vinco
Valor: R$ 450,00


Pastas (100 Unidades)
Impressão: Externa (Frente e Verso)
Papel: Cartão 300g (21,5cm x 30,3cm)
Corte-Vinco-Pasta
Valor: R$ 450,00



